…
### *Saving* and *Loading* data
By default JDF loads and saves `DataFrame`s using multiple threads starting from
Julia 1.3. For Julia < 1.3, it saves and loads using one thread only.

```julia
@time jdffile = JDF.save("iris.jdf", a)
@time a2 = DataFrame(JDF.load("iris.jdf"))
```

```
0.091923 seconds (157.33 k allocations: 9.226 MiB, 98.89% compilation tim
e)
  0.165332 seconds (197.31 k allocations: 11.476 MiB, 98.49% compilation ti
me)
150×5 DataFrame
 Row │ SepalLength  SepalWidth  PetalLength  PetalWidth  Species
     │ Float64      Float64     Float64      Float64     Cat…
─────┼─────────────────────────────────────────────────────────────
   1 │         5.1         3.5          1.4         0.2  setosa
   2 │         4.9         3.0          1.4         0.2  setosa
   3 │         4.7         3.2          1.3         0.2  setosa
   4 │         4.6         3.1          1.5         0.2  setosa
   5 │         5.0         3.6          1.4         0.2  setosa
   6 │         5.4         3.9          1.7         0.4  setosa
   7 │         4.6         3.4          1.4         0.3  setosa
   8 │         5.0         3.4          1.5         0.2  setosa
  ⋮  │      ⋮           ⋮            ⋮           ⋮           ⋮
 144 │         6.8         3.2          5.9         2.3  virginica
 145 │         6.7         3.3          5.7         2.5  virginica
 146 │         6.7         3.0          5.2         2.3  virginica
 147 │         6.3         2.5          5.0         1.9  virginica
 148 │         6.5         3.0          5.2         2.0  virginica
 149 │         6.2         3.4          5.4         2.3  virginica
 150 │         5.9         3.0          5.1         1.8  virginica
                                                   135 rows omitted
```
…
### Loading only certain columns
You can load only a few columns from the dataset by specifying `cols =
[:column1, :column2]`. For example
```julia
a2_selected = DataFrame(JDF.load("iris.jdf", cols = [:Species, :SepalLength, :PetalWidth]))
```

```
150×3 DataFrame
 Row │ SepalLength  PetalWidth  Species
     │ Float64      Float64     Cat…
─────┼────────────────────────────────────
   1 │         5.1         0.2  setosa
   2 │         4.9         0.2  setosa
   3 │         4.7         0.2  setosa
   4 │         4.6         0.2  setosa
   5 │         5.0         0.2  setosa
   6 │         5.4         0.4  setosa
   7 │         4.6         0.3  setosa
   8 │         5.0         0.2  setosa
  ⋮  │      ⋮           ⋮           ⋮
 144 │         6.8         2.3  virginica
 145 │         6.7         2.5  virginica
 146 │         6.7         2.3  virginica
 147 │         6.3         1.9  virginica
 148 │         6.5         2.0  virginica
 149 │         6.2         2.3  virginica
 150 │         5.9         1.8  virginica
                          135 rows omitted
```
…
